# XSI Wavefront OBJ Export v3.0
# File Created: Sat Dec 03 20:45:26 2016
# XSI Version: 6.02.2007.0613
mtllib Stop_Sign.mtl

o Stop_Sign
# Hierarchy (from self to top father)
g Stop_Sign

#begin 32 vertices
v -0.000000 1.711424 0.035352
v -0.000000 1.711424 0.066581
v -0.371388 1.575138 0.035352
v -0.367630 1.576517 0.066581
v -0.166242 1.352445 0.035352
v -0.164560 1.356077 0.066581
v 0.136286 1.340036 0.035352
v 0.134907 1.343794 0.066581
v 0.358980 1.545182 0.035352
v 0.355347 1.546864 0.066581
v 0.371388 1.847710 0.035352
v 0.367630 1.846331 0.066581
v 0.166242 2.070403 0.035352
v 0.164560 2.066771 0.066581
v -0.136286 2.082812 0.035352
v -0.134907 2.079054 0.066581
v -0.358980 1.877666 0.035352
v -0.355347 1.875984 0.066581
v -0.029370 2.017720 -0.016957
v 0.000000 2.017720 0.000000
v -0.029370 -0.000000 0.016957
v -0.029370 2.017720 0.016957
v -0.000000 -0.000000 0.033913
v -0.000000 2.017720 0.033913
v 0.029370 -0.000000 0.016957
v 0.029370 2.017720 0.016957
v 0.029370 -0.000000 -0.016957
v 0.029370 2.017720 -0.016957
v 0.000000 -0.000000 -0.033913
v 0.000000 2.017720 -0.033913
v -0.029370 -0.000000 -0.016957
v 0.000000 0.000582 0.000000
#end 32 vertices

#begin 140 normals
vn 0.000000 0.000000 -1.000000
vn 0.000000 0.000000 -1.000000
vn 0.000000 0.000000 -1.000000
vn -0.931168 -0.341705 0.127134
vn -0.416813 -0.900057 0.127134
vn -0.416813 -0.900057 0.127134
vn -0.931168 -0.341705 0.127134
vn 0.000000 0.000000 1.000000
vn 0.000000 0.000000 1.000000
vn 0.000000 0.000000 1.000000
vn 0.000000 0.000000 -1.000000
vn 0.000000 0.000000 -1.000000
vn 0.000000 0.000000 -1.000000
vn -0.416813 -0.900057 0.127134
vn 0.341705 -0.931168 0.127134
vn 0.341705 -0.931168 0.127134
vn -0.416813 -0.900057 0.127134
vn 0.000000 0.000000 1.000000
vn 0.000000 0.000000 1.000000
vn 0.000000 0.000000 1.000000
vn 0.000000 0.000000 -1.000000
vn 0.000000 0.000000 -1.000000
vn 0.000000 0.000000 -1.000000
vn 0.341705 -0.931168 0.127134
vn 0.900057 -0.416814 0.127134
vn 0.900057 -0.416814 0.127134
vn 0.341705 -0.931168 0.127134
vn 0.000000 0.000000 1.000000
vn 0.000000 0.000000 1.000000
vn 0.000000 0.000000 1.000000
vn 0.000000 0.000000 -1.000000
vn 0.000000 0.000000 -1.000000
vn 0.000000 0.000000 -1.000000
vn 0.900057 -0.416814 0.127134
vn 0.931168 0.341705 0.127134
vn 0.931168 0.341705 0.127134
vn 0.900057 -0.416814 0.127134
vn 0.000000 0.000000 1.000000
vn 0.000000 0.000000 1.000000
vn 0.000000 0.000000 1.000000
vn 0.000000 0.000000 -1.000000
vn 0.000000 0.000000 -1.000000
vn 0.000000 0.000000 -1.000000
vn 0.931168 0.341705 0.127134
vn 0.416814 0.900057 0.127134
vn 0.416814 0.900057 0.127134
vn 0.931168 0.341705 0.127134
vn 0.000000 0.000000 1.000000
vn 0.000000 0.000000 1.000000
vn 0.000000 0.000000 1.000000
vn 0.000000 0.000000 -1.000000
vn 0.000000 0.000000 -1.000000
vn 0.000000 0.000000 -1.000000
vn 0.416814 0.900057 0.127134
vn -0.341705 0.931168 0.127134
vn -0.341705 0.931168 0.127134
vn 0.416814 0.900057 0.127134
vn 0.000000 0.000000 1.000000
vn 0.000000 0.000000 1.000000
vn 0.000000 0.000000 1.000000
vn 0.000000 0.000000 -1.000000
vn 0.000000 0.000000 -1.000000
vn 0.000000 0.000000 -1.000000
vn -0.341705 0.931168 0.127134
vn -0.900057 0.416814 0.127134
vn -0.900057 0.416814 0.127134
vn -0.341705 0.931168 0.127134
vn 0.000000 0.000000 1.000000
vn 0.000000 0.000000 1.000000
vn 0.000000 0.000000 1.000000
vn 0.000000 0.000000 -1.000000
vn 0.000000 0.000000 -1.000000
vn 0.000000 0.000000 -1.000000
vn -0.900057 0.416814 0.127134
vn -0.931168 -0.341705 0.127134
vn -0.931168 -0.341705 0.127134
vn -0.900057 0.416814 0.127134
vn 0.000000 0.000000 1.000000
vn 0.000000 0.000000 1.000000
vn 0.000000 0.000000 1.000000
vn 0.000000 1.000000 0.000000
vn 0.000000 1.000000 0.000000
vn 0.000000 1.000000 0.000000
vn -0.500000 0.000000 0.866025
vn -0.500000 0.000000 0.866025
vn -0.500000 0.000000 0.866025
vn -0.500000 0.000000 0.866025
vn 0.000000 1.000000 0.000000
vn 0.000000 1.000000 0.000000
vn 0.000000 1.000000 0.000000
vn -0.866025 0.000000 -0.500000
vn -1.000000 0.000000 -0.000000
vn -1.000000 0.000000 -0.000000
vn 0.500000 0.000000 0.866025
vn 0.866025 0.000000 0.500000
vn 0.866025 0.000000 0.500000
vn 0.500000 0.000000 0.866025
vn 0.000000 1.000000 0.000000
vn 0.000000 1.000000 0.000000
vn 0.000000 1.000000 0.000000
vn -0.866025 0.000000 -0.500000
vn 0.000000 1.000000 0.000000
vn 0.000000 1.000000 0.000000
vn 0.866025 0.000000 0.500000
vn 1.000000 0.000000 0.000000
vn 1.000000 0.000000 0.000000
vn 0.866025 0.000000 0.500000
vn 0.000000 1.000000 0.000000
vn 0.000000 1.000000 0.000000
vn 0.000000 1.000000 0.000000
vn 0.000000 1.000000 0.000000
vn -0.500000 0.000000 -0.866025
vn -0.866025 0.000000 -0.500000
vn 0.500000 0.000000 -0.866025
vn 0.500000 0.000000 -0.866025
vn 0.500000 0.000000 -0.866025
vn 0.500000 0.000000 -0.866025
vn 0.000000 1.000000 0.000000
vn 0.000000 1.000000 0.000000
vn 0.000000 1.000000 0.000000
vn -0.866025 0.000000 -0.500000
vn -0.500000 0.000000 -0.866025
vn 0.014869 -0.999853 0.008585
vn 0.014869 -0.999853 -0.008585
vn -0.000000 -1.000000 0.000000
vn 0.014869 -0.999853 -0.008585
vn 0.000000 -0.999853 -0.017170
vn -0.000000 -1.000000 0.000000
vn 0.000000 -0.999853 -0.017170
vn -0.014869 -0.999853 -0.008585
vn -0.000000 -1.000000 0.000000
vn 0.000000 -0.999853 0.017170
vn 0.014869 -0.999853 0.008585
vn -0.000000 -1.000000 0.000000
vn -0.014869 -0.999853 -0.008585
vn -0.014869 -0.999853 0.008585
vn -0.000000 -1.000000 0.000000
vn -0.014869 -0.999853 0.008585
vn 0.000000 -0.999853 0.017170
vn -0.000000 -1.000000 0.000000
#end 140 vertex normals

#begin 140 texture vertices
vt 0.258141 0.151715 0.000000
vt 0.011542 0.394353 0.000000
vt 0.427731 0.570704 0.000000
vt 0.011542 0.394353 0.000000
vt 0.258141 0.151715 0.000000
vt 0.259856 0.155954 0.000000
vt 0.015753 0.396137 0.000000
vt 0.015753 0.396137 0.000000
vt 0.259856 0.155954 0.000000
vt 0.427731 0.570704 0.000000
vt 0.604083 0.154515 0.000000
vt 0.258141 0.151715 0.000000
vt 0.427731 0.570704 0.000000
vt 0.258141 0.151715 0.000000
vt 0.604083 0.154515 0.000000
vt 0.602298 0.158726 0.000000
vt 0.259856 0.155954 0.000000
vt 0.259856 0.155954 0.000000
vt 0.602298 0.158726 0.000000
vt 0.427731 0.570704 0.000000
vt 0.842160 0.401114 0.000000
vt 0.604083 0.154515 0.000000
vt 0.427731 0.570704 0.000000
vt 0.604083 0.154515 0.000000
vt 0.842160 0.401114 0.000000
vt 0.837920 0.402829 0.000000
vt 0.602298 0.158726 0.000000
vt 0.602298 0.158726 0.000000
vt 0.837920 0.402829 0.000000
vt 0.427731 0.570704 0.000000
vt 0.839359 0.747055 0.000000
vt 0.842160 0.401114 0.000000
vt 0.427731 0.570704 0.000000
vt 0.842160 0.401114 0.000000
vt 0.839359 0.747055 0.000000
vt 0.835149 0.745271 0.000000
vt 0.837920 0.402829 0.000000
vt 0.837920 0.402829 0.000000
vt 0.835149 0.745271 0.000000
vt 0.427731 0.570704 0.000000
vt 0.597322 0.989693 0.000000
vt 0.839359 0.747055 0.000000
vt 0.427731 0.570704 0.000000
vt 0.839359 0.747055 0.000000
vt 0.597322 0.989693 0.000000
vt 0.595606 0.985453 0.000000
vt 0.835149 0.745271 0.000000
vt 0.835149 0.745271 0.000000
vt 0.595606 0.985453 0.000000
vt 0.427731 0.570704 0.000000
vt 0.251380 0.986892 0.000000
vt 0.597322 0.989693 0.000000
vt 0.427731 0.570704 0.000000
vt 0.597322 0.989693 0.000000
vt 0.251380 0.986892 0.000000
vt 0.253164 0.982681 0.000000
vt 0.595606 0.985453 0.000000
vt 0.595606 0.985453 0.000000
vt 0.253164 0.982681 0.000000
vt 0.427731 0.570704 0.000000
vt 0.008742 0.740294 0.000000
vt 0.251380 0.986892 0.000000
vt 0.427731 0.570704 0.000000
vt 0.251380 0.986892 0.000000
vt 0.008742 0.740294 0.000000
vt 0.012981 0.738578 0.000000
vt 0.253164 0.982681 0.000000
vt 0.253164 0.982681 0.000000
vt 0.012981 0.738578 0.000000
vt 0.427731 0.570704 0.000000
vt 0.011542 0.394353 0.000000
vt 0.008742 0.740294 0.000000
vt 0.427731 0.570704 0.000000
vt 0.008742 0.740294 0.000000
vt 0.011542 0.394353 0.000000
vt 0.015753 0.396137 0.000000
vt 0.012981 0.738578 0.000000
vt 0.012981 0.738578 0.000000
vt 0.015753 0.396137 0.000000
vt 0.427731 0.570704 0.000000
vt 0.731197 0.101396 0.000000
vt 0.651693 0.101396 0.000000
vt 0.691445 0.170248 0.000000
vt 0.897717 0.000000 0.000000
vt 0.922242 0.000000 0.000000
vt 0.922242 1.000000 0.000000
vt 0.897717 1.000000 0.000000
vt 0.651693 0.101396 0.000000
vt 0.691445 0.032544 0.000000
vt 0.731197 0.101396 0.000000
vt 0.873193 1.000000 0.000000
vt 0.897717 1.000000 0.000000
vt 0.897717 0.000000 0.000000
vt 0.922242 0.000000 0.000000
vt 0.946766 0.000000 0.000000
vt 0.946766 1.000000 0.000000
vt 0.922242 1.000000 0.000000
vt 0.691445 0.032544 0.000000
vt 0.770948 0.032544 0.000000
vt 0.731197 0.101396 0.000000
vt 0.873193 0.000000 0.000000
vt 0.731197 0.101396 0.000000
vt 0.691445 0.170248 0.000000
vt 0.946766 0.000000 0.000000
vt 0.971290 0.000000 0.000000
vt 0.971290 1.000000 0.000000
vt 0.946766 1.000000 0.000000
vt 0.770948 0.032544 0.000000
vt 0.810700 0.101396 0.000000
vt 0.731197 0.101396 0.000000
vt 0.770948 0.170248 0.000000
vt 0.848669 1.000000 0.000000
vt 0.873193 1.000000 0.000000
vt 0.971290 0.000000 0.000000
vt 0.995814 0.000000 0.000000
vt 0.995814 1.000000 0.000000
vt 0.971290 1.000000 0.000000
vt 0.810700 0.101396 0.000000
vt 0.770948 0.170248 0.000000
vt 0.731197 0.101396 0.000000
vt 0.873193 0.000000 0.000000
vt 0.848669 0.000000 0.000000
vt 0.691445 0.170248 0.000000
vt 0.651693 0.101396 0.000000
vt 0.731197 0.101396 0.000000
vt 0.651693 0.101396 0.000000
vt 0.691445 0.032544 0.000000
vt 0.731197 0.101396 0.000000
vt 0.691445 0.032544 0.000000
vt 0.770948 0.032544 0.000000
vt 0.731197 0.101396 0.000000
vt 0.770948 0.170248 0.000000
vt 0.691445 0.170248 0.000000
vt 0.731197 0.101396 0.000000
vt 0.770948 0.032544 0.000000
vt 0.810700 0.101396 0.000000
vt 0.731197 0.101396 0.000000
vt 0.810700 0.101396 0.000000
vt 0.770948 0.170248 0.000000
vt 0.731197 0.101396 0.000000
#end 140 texture vertices

#begin 42 faces
usemtl material11
f 5/1/1 3/2/2 1/3/3 
usemtl material11
f 3/4/4 5/5/5 6/6/6 4/7/7 
usemtl material11
f 4/8/8 6/9/9 2/10/10 
usemtl material11
f 7/11/11 5/12/12 1/13/13 
usemtl material11
f 5/14/14 7/15/15 8/16/16 6/17/17 
usemtl material11
f 6/18/18 8/19/19 2/20/20 
usemtl material11
f 9/21/21 7/22/22 1/23/23 
usemtl material11
f 7/24/24 9/25/25 10/26/26 8/27/27 
usemtl material11
f 8/28/28 10/29/29 2/30/30 
usemtl material11
f 11/31/31 9/32/32 1/33/33 
usemtl material11
f 9/34/34 11/35/35 12/36/36 10/37/37 
usemtl material11
f 10/38/38 12/39/39 2/40/40 
usemtl material11
f 13/41/41 11/42/42 1/43/43 
usemtl material11
f 11/44/44 13/45/45 14/46/46 12/47/47 
usemtl material11
f 12/48/48 14/49/49 2/50/50 
usemtl material11
f 15/51/51 13/52/52 1/53/53 
usemtl material11
f 13/54/54 15/55/55 16/56/56 14/57/57 
usemtl material11
f 14/58/58 16/59/59 2/60/60 
usemtl material11
f 17/61/61 15/62/62 1/63/63 
usemtl material11
f 15/64/64 17/65/65 18/66/66 16/67/67 
usemtl material11
f 16/68/68 18/69/69 2/70/70 
usemtl material11
f 3/71/71 17/72/72 1/73/73 
usemtl material11
f 17/74/74 3/75/75 4/76/76 18/77/77 
usemtl material11
f 18/78/78 4/79/79 2/80/80 
usemtl material11
f 19/83/83 22/82/82 20/81/81 
usemtl material11
f 21/84/84 23/85/85 24/86/86 22/87/87 
usemtl material11
f 22/88/88 24/89/89 20/90/90 
usemtl material11
f 31/101/101 21/93/93 22/92/92 19/91/91 
usemtl material11
f 23/94/94 25/95/95 26/96/96 24/97/97 
usemtl material11
f 24/98/98 26/99/99 20/100/100 
usemtl material11
f 30/111/111 19/103/103 20/102/102 
usemtl material11
f 25/104/104 27/105/105 28/106/106 26/107/107 
usemtl material11
f 26/108/108 28/109/109 20/110/110 
usemtl material11
f 29/122/122 31/121/121 19/113/113 30/112/112 
usemtl material11
f 27/114/114 29/115/115 30/116/116 28/117/117 
usemtl material11
f 28/118/118 30/119/119 20/120/120 
usemtl material11
f 32/125/125 21/124/124 31/123/123 
usemtl material11
f 32/128/128 23/127/127 21/126/126 
usemtl material11
f 32/131/131 25/130/130 23/129/129 
usemtl material11
f 32/134/134 31/133/133 29/132/132 
usemtl material11
f 32/137/137 27/136/136 25/135/135 
usemtl material11
f 32/140/140 29/139/139 27/138/138 
#end 42 faces
